{
  "family": "paperless-service",
  "containerDefinitions": [
    {
      "image": "%IMAGE_URI%",
      "name": "paperless-service",
      "cpu": 512,
      "memory": 1024,
      "essential": true,
      "portMappings": [
        {
          "containerPort": 8081,
          "hostPort": 0
        }
      ],
      "environment": [
        {
          "name": "AWS_LB_URL",
          "value": "http://stb-api.stg.aws.sothebys.com"
        },
        {
          "name": "SPRING_BOOT_ADMIN_URL",
          "value": "http://stb-api.stg.aws.sothebys.com/spring-boot-admin-server"
        },
        {
          "name": "SPRING_PROFILES_ACTIVE",
          "value": "stg,cloud"
        },
        {
          "name": "CONFIG_SERVER_URI",
          "value": "http://stb-api.stg.aws.sothebys.com/config-server"
        },
        {
          "name": "CONFIG_SERVER_LABEL",
          "value": "master"
        },
        {
          "name": "TAKIPI_SECRET_KEY",
          "value": "S24685#niEMStBqu15qu0KI#eRCwdGvqjKV61dNSVTspImaNULcaEVgRkKM9fX63X3I=#bb4c"
        },
        {
          "name": "TAKIPI_MACHINE_NAME",
          "value": "ecs-stb-stg"
        }
      ],
      "logConfiguration": {
        "logDriver": "awslogs",
        "options": {
          "awslogs-group": "paperless-service-v1-stg",
          "awslogs-region": "us-east-1",
          "awslogs-stream-prefix": "paperless-service-v1-stg"
        }
      }
    }
  ]
}
